{
  "install": {
    "include": [
    ]
  },
  "restart": {
    "exclude": [
      "^public/",
      "^dist/"
    ],
    "include": [
      "\\.js$",
      "\\.coffee$",
      "\\.json",
      "\\.html",
      "hc/en-us/"
    ]
  },
  "throttle": 100
}
